{"status":0,"statusInfo":"OK","data":{"moreUrl":"https:\/\/yi.baidu.com\/pc\/hospital\/listpage?zt=self&zt_ext=&pvid=0&provId=4&cityId=84&regionId=0","page":1,"pageSize":10,"total":132,"totalPage":14,"data":[{"id":"230","name":"\u4e2d\u5c71\u5927\u5b66\u9644\u5c5e\u7b2c\u4e00\u533b\u9662","logo":"https:\/\/ss0.baidu.com\/94o3dSag_xI4khGko9WTAnF6hhy\/dpp\/pic\/item\/1c950a7b02087bf424e38d9df4d3572c11dfcfb3.jpg","level":"\u4e09\u7532","isInsurance":1,"address":"\u5e7f\u4e1c\u7701\u5e7f\u5dde\u5e02\u8d8a\u79c0\u533a\u4e2d\u5c71\u4e8c\u8def58\u53f7","availDocNum":457,"serveNum":12307,"url":"https:\/\/yi.baidu.com\/pc\/hospital\/index?zt=self&zt_ext=&pvid=0&key=%E4%B8%AD%E5%B1%B1%E5%A4%A7%E5%AD%A6%E9%99%84%E5%B1%9E%E7%AC%AC%E4%B8%80%E5%8C%BB%E9%99%A2","grade":"9.6"},{"id":"620","name":"\u5357\u65b9\u533b\u79d1\u5927\u5b66\u5357\u65b9\u533b\u9662","logo":"https:\/\/ss1.baidu.com\/9vo3dSag_xI4khGko9WTAnF6hhy\/dpp\/pic\/item\/f703738da977391232003116fe198618367ae2a7.jpg","level":"\u4e09\u7532","isInsurance":1,"address":"\u5e7f\u5dde\u5e02\u5e7f\u5dde\u5927\u9053\u53171838\u53f7","availDocNum":436,"serveNum":2147,"url":"https:\/\/yi.baidu.com\/pc\/hospital\/index?zt=self&zt_ext=&pvid=0&key=%E5%8D%97%E6%96%B9%E5%8C%BB%E7%A7%91%E5%A4%A7%E5%AD%A6%E5%8D%97%E6%96%B9%E5%8C%BB%E9%99%A2","grade":"9.6"},{"id":"228","name":"\u4e2d\u5c71\u5927\u5b66\u5b59\u9038\u4ed9\u7eaa\u5ff5\u533b\u9662","logo":"https:\/\/ss3.baidu.com\/-fo3dSag_xI4khGko9WTAnF6hhy\/dpp\/pic\/item\/5366d0160924ab18504ec63d33fae6cd7b890b5b.jpg","level":"\u4e09\u7532","isInsurance":1,"address":"\u5e7f\u4e1c\u7701\u5e7f\u5dde\u5e02\u8d8a\u79c0\u533a\u6cbf\u6c5f\u897f\u8def107\u53f7","availDocNum":1200,"serveNum":20064,"url":"https:\/\/yi.baidu.com\/pc\/hospital\/index?zt=self&zt_ext=&pvid=0&key=%E4%B8%AD%E5%B1%B1%E5%A4%A7%E5%AD%A6%E5%AD%99%E9%80%B8%E4%BB%99%E7%BA%AA%E5%BF%B5%E5%8C%BB%E9%99%A2","grade":"9.6"},{"id":"646","name":"\u4e2d\u5c71\u5927\u5b66\u9644\u5c5e\u7b2c\u4e09\u533b\u9662","logo":"https:\/\/ss2.baidu.com\/-vo3dSag_xI4khGko9WTAnF6hhy\/dpp\/pic\/item\/9825bc315c6034a81161caffcd134954082376c8.jpg","level":"\u4e09\u7532","isInsurance":1,"address":"\u5e7f\u4e1c\u7701\u5e7f\u5dde\u5e02\u5929\u6cb3\u533a\u5929\u6cb3\u8def600\u53f7","availDocNum":1112,"serveNum":35415,"url":"https:\/\/yi.baidu.com\/pc\/hospital\/index?zt=self&zt_ext=&pvid=0&key=%E4%B8%AD%E5%B1%B1%E5%A4%A7%E5%AD%A6%E9%99%84%E5%B1%9E%E7%AC%AC%E4%B8%89%E5%8C%BB%E9%99%A2","grade":"9.6"},{"id":"301","name":"\u4e2d\u5c71\u5927\u5b66\u4e2d\u5c71\u773c\u79d1\u4e2d\u5fc3","logo":"https:\/\/ss3.baidu.com\/-fo3dSag_xI4khGko9WTAnF6hhy\/dpp\/pic\/item\/1f178a82b9014a9007767ec8af773912b31bee7f.jpg","level":"\u4e09\u7532","isInsurance":1,"address":"\u5e7f\u4e1c\u7701\u5e7f\u5dde\u5e02\u8d8a\u79c0\u533a\u5148\u70c8\u5357\u8def54\u53f7","availDocNum":403,"serveNum":25314,"url":"https:\/\/yi.baidu.com\/pc\/hospital\/index?zt=self&zt_ext=&pvid=0&key=%E4%B8%AD%E5%B1%B1%E5%A4%A7%E5%AD%A6%E4%B8%AD%E5%B1%B1%E7%9C%BC%E7%A7%91%E4%B8%AD%E5%BF%83","grade":"9.6"},{"id":"4970","name":"\u5e7f\u5dde\u5e02\u5987\u5973\u513f\u7ae5\u533b\u7597\u4e2d\u5fc3","logo":"https:\/\/ss3.baidu.com\/-fo3dSag_xI4khGko9WTAnF6hhy\/dpp\/pic\/item\/5d6034a85edf8db1d28b36130f23dd54564e741b.jpg","level":"\u4e09\u7532","isInsurance":1,"address":"\u5e7f\u5dde\u5e02\u4eba\u6c11\u4e2d\u8def318\u53f7\u513f\u7ae5\u9662\u533a;\u5e7f\u5dde\u5e02\u4eba\u6c11\u4e2d\u8def402\u53f7\u5987\u5a74\u9662\u533a;\u5e7f\u5dde\u5e02\u91d1\u7a57\u8def9\u53f7\u73e0\u6c5f\u65b0\u57ce\u9662\u533a","availDocNum":259,"serveNum":3313,"url":"https:\/\/yi.baidu.com\/pc\/hospital\/index?zt=self&zt_ext=&pvid=0&key=%E5%B9%BF%E5%B7%9E%E5%B8%82%E5%A6%87%E5%A5%B3%E5%84%BF%E7%AB%A5%E5%8C%BB%E7%96%97%E4%B8%AD%E5%BF%83","grade":"9.6"},{"id":"677","name":"\u5e7f\u5dde\u533b\u79d1\u5927\u5b66\u9644\u5c5e\u7b2c\u4e09\u533b\u9662","logo":"https:\/\/ss2.baidu.com\/-vo3dSag_xI4khGko9WTAnF6hhy\/dpp\/pic\/item\/c8ea15ce36d3d539bd2273bd3c87e950352ab0b4.jpg","level":"\u4e09\u7532","isInsurance":1,"address":"\u5e7f\u5dde\u5e02\u8354\u6e7e\u533a\u591a\u5b9d\u8def63\u53f7","availDocNum":384,"serveNum":62183,"url":"https:\/\/yi.baidu.com\/pc\/hospital\/index?zt=self&zt_ext=&pvid=0&key=%E5%B9%BF%E5%B7%9E%E5%8C%BB%E7%A7%91%E5%A4%A7%E5%AD%A6%E9%99%84%E5%B1%9E%E7%AC%AC%E4%B8%89%E5%8C%BB%E9%99%A2","grade":"9.6"},{"id":"4953","name":"\u4e2d\u5c71\u5927\u5b66\u9644\u5c5e\u80bf\u7624\u533b\u9662","logo":"https:\/\/ss1.baidu.com\/9vo3dSag_xI4khGko9WTAnF6hhy\/dpp\/pic\/item\/0b46f21fbe096b63b30390220a338744ebf8acae.jpg","level":"\u4e09\u7532","isInsurance":1,"address":"\u5e7f\u5dde\u5e02\u8d8a\u79c0\u533a\u4e1c\u98ce\u4e1c\u8def651\u53f7\u4e1c\u98ce\u4e1c\u8def\u548c\u5148\u70c8\u8def\u7684\u4ea4\u6c47\u5904","availDocNum":166,"serveNum":5242,"url":"https:\/\/yi.baidu.com\/pc\/hospital\/index?zt=self&zt_ext=&pvid=0&key=%E4%B8%AD%E5%B1%B1%E5%A4%A7%E5%AD%A6%E9%99%84%E5%B1%9E%E8%82%BF%E7%98%A4%E5%8C%BB%E9%99%A2","grade":"9.6"},{"id":"676","name":"\u5e7f\u5dde\u533b\u79d1\u5927\u5b66\u9644\u5c5e\u7b2c\u4e8c\u533b\u9662","logo":"https:\/\/ss0.baidu.com\/94o3dSag_xI4khGko9WTAnF6hhy\/dpp\/pic\/item\/377adab44aed2e7349f2fb528101a18b87d6fab1.jpg","level":"\u4e09\u7532","isInsurance":1,"address":"\u5e7f\u4e1c\u7701\u5e7f\u5dde\u5e02\u6d77\u73e0\u533a\u660c\u5c97\u4e1c\u8def250\u53f7","availDocNum":645,"serveNum":44817,"url":"https:\/\/yi.baidu.com\/pc\/hospital\/index?zt=self&zt_ext=&pvid=0&key=%E5%B9%BF%E5%B7%9E%E5%8C%BB%E7%A7%91%E5%A4%A7%E5%AD%A6%E9%99%84%E5%B1%9E%E7%AC%AC%E4%BA%8C%E5%8C%BB%E9%99%A2","grade":"9.6"},{"id":"648","name":"\u5357\u65b9\u533b\u79d1\u5927\u5b66\u73e0\u6c5f\u533b\u9662","logo":"https:\/\/ss0.baidu.com\/94o3dSag_xI4khGko9WTAnF6hhy\/dpp\/pic\/item\/ae51f3deb48f8c54d157b8513c292df5e1fe7fc3.jpg","level":"\u4e09\u7532","isInsurance":1,"address":"\u5e7f\u5dde\u5e02\u5de5\u4e1a\u5927\u9053\u4e2d253\u53f7","availDocNum":321,"serveNum":645,"url":"https:\/\/yi.baidu.com\/pc\/hospital\/index?zt=self&zt_ext=&pvid=0&key=%E5%8D%97%E6%96%B9%E5%8C%BB%E7%A7%91%E5%A4%A7%E5%AD%A6%E7%8F%A0%E6%B1%9F%E5%8C%BB%E9%99%A2","grade":"9.5"}]},"t":1468942998}